Added Component: Designator=U2(DIP-14)
Added Pin To Net: NetName=1V65 Pin=U2-1
Added Pin To Net: NetName=1V65 Pin=U2-2
Added Pin To Net: NetName=NetC6_1 Pin=U2-3
Added Pin To Net: NetName=3V3 Pin=U2-4
Added Pin To Net: NetName=1V65 Pin=U2-5
Added Pin To Net: NetName=NetC11_1 Pin=U2-6
Added Pin To Net: NetName=V_SENSE_ADC Pin=U2-7
Added Pin To Net: NetName=V_SENSE_OUT Pin=U2-8
Added Pin To Net: NetName=NetR6_1 Pin=U2-9
Added Pin To Net: NetName=NetR13_2 Pin=U2-10
Added Pin To Net: NetName=GND Pin=U2-11
Added Pin To Net: NetName=I_SENSE Pin=U2-12
Added Pin To Net: NetName=I_PEAK Pin=U2-13
Added Pin To Net: NetName=NetD7_1 Pin=U2-14
Added Member To Class: ClassName=Group29_Schematic Member=Component U2 MCP6024-I/P
