Circuit: * C:\Users\Emily\GitHub\EE209\LTSpice\Group29_Analogue_Schematic.asc

Direct Newton iteration for .op point succeeded.

Date: Sat Oct 17 16:32:08 2015
Total elapsed time: 0.386 seconds.

tnom = 27
temp = 27
method = modified trap
totiter = 3380
traniter = 3335
tranpoints = 1242
accept = 1164
rejected = 78
matrix size = 40
fillins = 57
solver = Normal
Thread vector: 60.9/32.0[2] 18.9/14.3[2] 4.2/6.3[1] 1.1/3.1[1]  2592/500
Matrix Compiler1: 8.58 KB object code size  8.6/4.3/[2.0]
Matrix Compiler2: 5.13 KB object code size  2.1/2.5/[2.0]


